<define-tag pagetitle>DLA-1326-1 php5</define-tag>
<define-tag report_date>2018-3-29</define-tag>
<define-tag secrefs>CVE-2018-7584</define-tag>
<define-tag packages>php5</define-tag>
<define-tag isvulnerable>yes</define-tag>
<define-tag fixed>yes</define-tag>
<define-tag fixed-section>no</define-tag>

#use wml::debian::security

