<define-tag pagetitle>DLA-226-2 ntfs-3g</define-tag>
<define-tag report_date>2015-5-26</define-tag>
<define-tag secrefs>CVE-2015-3202</define-tag>
<define-tag packages>ntfs-3g</define-tag>
<define-tag isvulnerable>yes</define-tag>
<define-tag fixed>yes</define-tag>
<define-tag fixed-section>no</define-tag>

#use wml::debian::security

