<define-tag pagetitle>DLA-1979-1 italc</define-tag>
<define-tag report_date>2019-10-30</define-tag>
<define-tag secrefs>CVE-2014-6051 CVE-2014-6052 CVE-2014-6053 CVE-2014-6054 CVE-2014-6055 CVE-2016-9941 CVE-2016-9942 CVE-2018-6307 CVE-2018-7225 CVE-2018-15126 CVE-2018-15127 CVE-2018-20019 CVE-2018-20020 CVE-2018-20021 CVE-2018-20022 CVE-2018-20023 CVE-2018-20024 CVE-2018-20748 CVE-2018-20749 CVE-2018-20750 CVE-2019-15681</define-tag>
<define-tag packages>italc</define-tag>
<define-tag isvulnerable>yes</define-tag>
<define-tag fixed>yes</define-tag>
<define-tag fixed-section>no</define-tag>

#use wml::debian::security

