<define-tag pagetitle>DLA-1860-1 libxslt</define-tag>
<define-tag report_date>2019-7-22</define-tag>
<define-tag secrefs>CVE-2016-4609 CVE-2016-4610 CVE-2019-13117 CVE-2019-13118 Bug#932321 Bug#932320</define-tag>
<define-tag packages>libxslt</define-tag>
<define-tag isvulnerable>yes</define-tag>
<define-tag fixed>yes</define-tag>
<define-tag fixed-section>no</define-tag>

#use wml::debian::security

