<define-tag pagetitle>DLA-1864-1 patch</define-tag>
<define-tag report_date>2019-7-25</define-tag>
<define-tag secrefs>CVE-2019-13638</define-tag>
<define-tag packages>patch</define-tag>
<define-tag isvulnerable>yes</define-tag>
<define-tag fixed>yes</define-tag>
<define-tag fixed-section>no</define-tag>

#use wml::debian::security

