<define-tag pagetitle>DLA-713-1 sniffit</define-tag>
<define-tag report_date>2016-11-21</define-tag>
<define-tag secrefs>CVE-2014-5439 Bug#845122</define-tag>
<define-tag packages>sniffit</define-tag>
<define-tag isvulnerable>yes</define-tag>
<define-tag fixed>yes</define-tag>
<define-tag fixed-section>no</define-tag>

#use wml::debian::security

